benchmark, model, hits_at_1, hits_at_3, hits_at_10, hits_at_1_filtered, hits_at_3_filtered, hits_at_10_filtered, mrr, mrr_filtered
ddi_efficacy, COMPLEX_IN_PATHWAY, 0.003495966192854399, 0.014598540145985403, 0.05628121398386478, 0.8015366884364196, 0.9178640030733769, 0.9759124087591242, 0.03170449033041803, 0.8662624855935459
ddi_efficacy, DRUG_TARGET, 0.003572800614675375, 0.0142912024587015, 0.05612754514022283, 0.8058009988474837, 0.918978102189781, 0.9754898194391088, 0.031702520698022714, 0.8687942698328851
ddi_efficacy, DRUG_TRANSPORTER, 0.003419131771033423, 0.01463695735689589, 0.05678063772570112, 0.8038801383019594, 0.9201690357280062, 0.9754514022281983, 0.03196661323022714, 0.8681139400451402
ddi_efficacy, MEMBER_OF_COMPLEX, 0.0037648866692278145, 0.01463695735689589, 0.05697272378025356, 0.804878985785632, 0.9186323472915867, 0.9750672301190935, 0.032002090061347487, 0.8677488264742604
ddi_efficacy, PPI, 0.0033807145601229354, 0.01463695735689589, 0.05655013446023819, 0.8045716480983481, 0.9225124855935459, 0.9761044948136766, 0.03189798326525283, 0.868780238546869
ddi_efficacy, PROTEIN_DISEASE_ASSOCIATION, 0.0032654629273914716, 0.014406454091432963, 0.05658855167114868, 0.8074145217057243, 0.9197848636189013, 0.975028812908183, 0.031683980360701594, 0.8697462963407606
ddi_efficacy, PROTEIN_PATHWAY_ASSOCIATION, 0.0036112178255858626, 0.014521705724164427, 0.05662696888205917, 0.8073761044948138, 0.9207452938916635, 0.9754514022281983, 0.03184348072311396, 0.8700265468930081
ddi_efficacy, RELATED_GENETIC_DISORDER, 0.0029581252401075686, 0.014560122935074915, 0.05704955820207453, 0.8060699193238572, 0.9187091817134077, 0.9750672301190935, 0.0316634117709734, 0.8685378049366116
ddi_efficacy, COMPLEX_TOP_LEVEL_PATHWAY, 0.002842873607376105, 0.014175950825970035, 0.05616596235113331, 0.8068382635420669, 0.9223203995389936, 0.9747598924318095, 0.031117706357448136, 0.8700564102718018
ddi_efficacy, DDI, 0.0024202842873607376, 0.013061851709565886, 0.053784095274683065, 0.7374183634268152, 0.8800614675374568, 0.9596619285439878, 0.030042357413621303, 0.8179810555128698
ddi_efficacy, DISEASE_GENETIC_DISORDER, 0.002842873607376105, 0.013714944295044182, 0.0565117172493277, 0.8012293507491357, 0.916365731847868, 0.9746062235881676, 0.031242949184984874, 0.8655019448713024
ddi_efficacy, DISEASE_PATHWAY_ASSOCIATION, 0.0036112178255858626, 0.014406454091432963, 0.05662696888205917, 0.8028812908182866, 0.9199001152516328, 0.975028812908183, 0.03186426503448545, 0.8671929024202842
ddi_efficacy, DPI, 0.0036496350364963507, 0.014752208989627355, 0.05804840568574722, 0.8080676142912026, 0.922435651171725, 0.9750672301190935, 0.03232911938298358, 0.8706571293939684
ddi_efficacy, DRUG_CARRIER, 0.003572800614675375, 0.014368036880522475, 0.05655013446023819, 0.8008451786400308, 0.9185170956588552, 0.9741836342681522, 0.031798301107646226, 0.8654217339368037
ddi_efficacy, DRUG_DISEASE_ASSOCIATION, 0.0031502112946600077, 0.014329619669611987, 0.05704955820207453, 0.8117172493276988, 0.9213215520553208, 0.9756050710718402, 0.031694541342021224, 0.873287507803496
ddi_efficacy, DRUG_ENZYME, 0.002842873607376105, 0.0142912024587015, 0.05697272378025356, 0.8016903572800615, 0.9189396849788706, 0.9750672301190935, 0.031504903259160104, 0.8664051995293892
ddi_efficacy, DRUG_PATHWAY_ASSOCIATION, 0.0037264694583173264, 0.014483288513253938, 0.05631963119477526, 0.8009220130618517, 0.9197464464079909, 0.9743373031117941, 0.03203140241203059, 0.8659435176959278
ddi_minerals, COMPLEX_IN_PATHWAY, 0.004741456432277688, 0.0087672213276078, 0.036231884057971016, 0.8123993558776167, 0.9354983002325997, 0.9872964752191805, 0.027435450162288648, 0.8785041976986044
ddi_minerals, DRUG_TARGET, 0.004562533548040794, 0.008319914117015565, 0.03667919126856325, 0.8077473608874575, 0.9395240651279299, 0.9885489354088387, 0.02724696630483707, 0.8781352566145554
ddi_minerals, DRUG_TRANSPORTER, 0.0046519949901592415, 0.008677759885489354, 0.03605296117373412, 0.8153515834675255, 0.9424762927178386, 0.9875648595455359, 0.027125376498129697, 0.882683637082886
ddi_minerals, MEMBER_OF_COMPLEX, 0.0046519949901592415, 0.008319914117015565, 0.035337269636786545, 0.8122204329933798, 0.9426552156020754, 0.9881016281982465, 0.026993237405156894, 0.8800258284968241
ddi_minerals, PPI, 0.004741456432277688, 0.008319914117015565, 0.03587403828949722, 0.8198246555734477, 0.9430130613705492, 0.9891751655036679, 0.026986488482887705, 0.8857185116691269
ddi_minerals, PROTEIN_DISEASE_ASSOCIATION, 0.0046519949901592415, 0.008140991232778672, 0.03739488280551082, 0.8087314367507604, 0.9415816782966541, 0.9885489354088387, 0.02733066986788362, 0.8788775943818214
ddi_minerals, PROTEIN_PATHWAY_ASSOCIATION, 0.004920379316514582, 0.00849883700125246, 0.03757380568974772, 0.8089103596349972, 0.9382716049382716, 0.986401860797996, 0.027458241425679906, 0.8784938886652353
ddi_minerals, RELATED_GENETIC_DISORDER, 0.004562533548040794, 0.008140991232778672, 0.03712649847915548, 0.8148148148148148, 0.9438182143496152, 0.9876543209876543, 0.027203668910716083, 0.882041768708624
ddi_minerals, COMPLEX_TOP_LEVEL_PATHWAY, 0.004741456432277688, 0.00849883700125246, 0.03685811415280014, 0.8074789765611021, 0.9408659867597066, 0.9889067811773126, 0.02720849307966821, 0.8784424308630793
ddi_minerals, DDI, 0.003667919126856325, 0.0074252996958310965, 0.032116657720522454, 0.6456432277688317, 0.8463052424405081, 0.9548219717301842, 0.02522750693413541, 0.7592811004316514
ddi_minerals, DISEASE_GENETIC_DISORDER, 0.0046519949901592415, 0.0087672213276078, 0.03578457684737878, 0.8090892825192342, 0.940150295222759, 0.9881016281982465, 0.026961054437636987, 0.8782794957170335
ddi_minerals, DISEASE_PATHWAY_ASSOCIATION, 0.0046519949901592415, 0.008677759885489354, 0.03667919126856325, 0.8188405797101449, 0.9420289855072463, 0.9889067811773126, 0.027281966783595568, 0.8835493337918232
ddi_minerals, DPI, 0.004741456432277688, 0.008409375559134014, 0.03632134550008946, 0.8143675076042225, 0.9431025228126677, 0.9875648595455359, 0.027123700188148595, 0.8827669829967346
ddi_minerals, DRUG_CARRIER, 0.0046519949901592415, 0.00849883700125246, 0.03587403828949722, 0.8225084988370012, 0.9397029880121667, 0.9885489354088387, 0.026993706990363325, 0.8854677750100645
ddi_minerals, DRUG_DISEASE_ASSOCIATION, 0.005009840758633029, 0.0087672213276078, 0.0365897298264448, 0.8236714975845411, 0.9439971372338521, 0.9891751655036679, 0.027560550937458066, 0.8881894471842011
ddi_minerals, DRUG_ENZYME, 0.004830917874396135, 0.0087672213276078, 0.035963499731615674, 0.8137412775093934, 0.9448022902129182, 0.988191089640365, 0.027233989918289552, 0.8827180587705762
ddi_minerals, DRUG_PATHWAY_ASSOCIATION, 0.0046519949901592415, 0.008677759885489354, 0.0365897298264448, 0.7943281445696905, 0.9371980676328502, 0.9875648595455359, 0.027326274331939692, 0.8704347581465826
dep_fda_exp, COMPLEX_IN_PATHWAY, 0.0005233398795778751, 0.0077206120378962816, 0.0979023242764961, 0.12310356734359151, 0.19584781060491616, 0.30424390875542223, 0.031124323190363533, 0.18262254060604916
dep_fda_exp, DRUG_TARGET, 0.00041003949327751037, 0.007639683190538878, 0.09747070375725661, 0.1306353454043205, 0.1950601031573041, 0.3009150355007877, 0.031065212465200595, 0.18651882202667414
dep_fda_exp, DRUG_TRANSPORTER, 0.0004316205192394846, 0.007823121911215659, 0.09828538748732114, 0.13042493040119127, 0.19318794915510282, 0.29985216997216046, 0.0311114014456927, 0.1857673007329456
dep_fda_exp, MEMBER_OF_COMPLEX, 0.00048017782765392666, 0.007699031011934307, 0.09769730452985735, 0.13029544424541942, 0.19617152599434576, 0.3021613397500917, 0.031095571320569955, 0.18690618458251504
dep_fda_exp, PPI, 0.000463992058182446, 0.0077206120378962816, 0.09703368798152663, 0.12985303321319894, 0.19503852213134212, 0.3021991065455252, 0.031090876815166604, 0.1862854139577983
dep_fda_exp, PROTEIN_DISEASE_ASSOCIATION, 0.0004478062887109653, 0.007790750372272698, 0.09700131644258368, 0.12911388307400135, 0.19340915467121306, 0.3013304702505557, 0.031105655813658633, 0.1851148329763472
dep_fda_exp, PROTEIN_PATHWAY_ASSOCIATION, 0.0004747825711634331, 0.0075587543431814746, 0.09749768003970909, 0.12979368539180353, 0.1942993719921445, 0.3023879405226924, 0.03111847481662872, 0.18590709267162311
dep_fda_exp, RELATED_GENETIC_DISORDER, 0.0004855730841444202, 0.00759652113861493, 0.0979832531238535, 0.12937285538554502, 0.19709951011071064, 0.3034346202818482, 0.031099504483626746, 0.18672055403888901
dep_fda_exp, COMPLEX_TOP_LEVEL_PATHWAY, 0.000463992058182446, 0.007963398579968492, 0.09756242311759501, 0.12873081986317628, 0.19306925351231197, 0.3014006085849321, 0.031169221313589842, 0.1850759070437771
dep_fda_exp, DDI, 0.0004532015452014589, 0.007661264216500852, 0.09687722554330232, 0.128563566911971, 0.19493601225802273, 0.3049398968426959, 0.031132534623215517, 0.1859248169322032
dep_fda_exp, DISEASE_GENETIC_DISORDER, 0.0004963635971254073, 0.007639683190538878, 0.09755702786110451, 0.13155253900770442, 0.19717504370157757, 0.30404428426527397, 0.031129465544206033, 0.18820294291009346
dep_fda_exp, DISEASE_PATHWAY_ASSOCIATION, 0.0004208300062584975, 0.007574940112652955, 0.09738977490989921, 0.12848263806461357, 0.19549711893303406, 0.3021721302630727, 0.031021792241823488, 0.18562084902453763
dep_fda_exp, DPI, 0.0003938537238060297, 0.0075371733172195, 0.0974868895267281, 0.12782441677277337, 0.1935386408269849, 0.29970110279042667, 0.030962952860126628, 0.18439956106216415
dep_fda_exp, DRUG_CARRIER, 0.00042622526274899104, 0.007634287934048385, 0.09706066426397911, 0.128137341649222, 0.19510866046571854, 0.30261454129529314, 0.031107062584638086, 0.18545191005567904
dep_fda_exp, DRUG_DISEASE_ASSOCIATION, 0.0004316205192394846, 0.007634287934048385, 0.09726568401061786, 0.1298746142391609, 0.19585860111789713, 0.302754817964046, 0.031074643626448628, 0.18643987425005934
dep_fda_exp, DRUG_ENZYME, 0.00048017782765392666, 0.007904050758573063, 0.09719015041975095, 0.12693959470833244, 0.1946338778945551, 0.30191855320801947, 0.031208310579120088, 0.1847279551505816
dep_fda_exp, DRUG_PATHWAY_ASSOCIATION, 0.0004747825711634331, 0.007386106135485681, 0.09728186978008935, 0.12862291473336643, 0.19535144700779075, 0.303159462200833, 0.031012698284106115, 0.18583809239916266
dpi_fda, COMPLEX_IN_PATHWAY, 0.10423197492163011, 0.2385057471264368, 0.4571577847439917, 0.446969696969697, 0.5932601880877744, 0.7345872518286312, 0.21605271804793627, 0.5439050688389825
dpi_fda, DRUG_TARGET, 0.1039707419017764, 0.23406478578892376, 0.4273772204806688, 0.40752351097178685, 0.5305642633228841, 0.6687565308254964, 0.2102118385498302, 0.49657051939451086
dpi_fda, DRUG_TRANSPORTER, 0.09952978056426333, 0.23981191222570536, 0.4474921630094044, 0.4438349007314525, 0.5896029258098224, 0.7123824451410659, 0.21237825176434333, 0.5393956103668691
dpi_fda, MEMBER_OF_COMPLEX, 0.09979101358411704, 0.23145245559038666, 0.44984326018808785, 0.4493207941483804, 0.6000522466039708, 0.737460815047022, 0.21095011201896388, 0.548343479072786
dpi_fda, PPI, 0.1039707419017764, 0.24738766980146293, 0.45114942528735635, 0.4527168234064786, 0.582810867293626, 0.7285788923719959, 0.21701676419536148, 0.5443740892559757
dpi_fda, PROTEIN_DISEASE_ASSOCIATION, 0.10214211076280043, 0.23484848484848486, 0.44487983281086735, 0.4302507836990596, 0.5616509926854755, 0.7147335423197493, 0.21217301547091333, 0.5232851034421532
dpi_fda, PROTEIN_PATHWAY_ASSOCIATION, 0.09743991640543366, 0.23380355276907003, 0.44984326018808785, 0.44514106583072105, 0.582810867293626, 0.7277951933124348, 0.21031584385918725, 0.5410003821553356
dpi_fda, RELATED_GENETIC_DISORDER, 0.09743991640543366, 0.2322361546499478, 0.43991640543364685, 0.43939393939393945, 0.5825496342737723, 0.7345872518286312, 0.2077901714647825, 0.5366504314426593
dpi_fda, COMPLEX_TOP_LEVEL_PATHWAY, 0.10266457680250785, 0.23928944618599793, 0.4542842215256009, 0.4657784743991641, 0.6005747126436782, 0.745559038662487, 0.21494054844137767, 0.5593385447279912
dpi_fda, DDI, 0.09430512016718914, 0.2351097178683386, 0.48928944618599796, 0.7549634273772206, 0.8550156739811913, 0.9326018808777431, 0.2146568497644821, 0.8159550873089734
dpi_fda, DISEASE_GENETIC_DISORDER, 0.09874608150470221, 0.22910135841170326, 0.4519331243469175, 0.4629049111807733, 0.6013584117032393, 0.7426854754440962, 0.21032813699018743, 0.5580444973713428
dpi_fda, DISEASE_PATHWAY_ASSOCIATION, 0.10579937304075236, 0.24529780564263326, 0.46133751306165105, 0.4414838035527691, 0.5877742946708464, 0.7421630094043888, 0.21827138105529975, 0.5418361237305708
dpi_fda, DPI, 0.08960292580982238, 0.20323928944618602, 0.3560606060606061, 0.27560083594566354, 0.3928944618599791, 0.5193312434691746, 0.17892915253355213, 0.3591282126049014
dpi_fda, DRUG_CARRIER, 0.10579937304075236, 0.24268547544409616, 0.463166144200627, 0.46159874608150475, 0.6026645768025078, 0.7583594566353188, 0.21959573871289675, 0.5594089551903736
dpi_fda, DRUG_DISEASE_ASSOCIATION, 0.09822361546499478, 0.2385057471264368, 0.4420062695924765, 0.4312957157784744, 0.5653082549634274, 0.714994775339603, 0.21060156747465222, 0.5258245358521911
dpi_fda, DRUG_ENZYME, 0.10031347962382446, 0.2298850574712644, 0.4409613375130617, 0.4258098223615465, 0.5671368861024034, 0.7202194357366772, 0.2098672482162683, 0.5242540764086174
dpi_fda, DRUG_PATHWAY_ASSOCIATION, 0.1013584117032393, 0.2330198537095089, 0.44435736677115995, 0.43338557993730414, 0.5726227795193313, 0.723092998955068, 0.2118775976613522, 0.5298869771768058